%YAML 1.1
%TAG !u! tag:unity3d.com,2011:
--- !u!1045 &1
EditorBuildSettings:
  m_ObjectHideFlags: 0
  serializedVersion: 2
  m_Scenes:
  - enabled: 1
    path: Assets/Scenes/Start Menu.unity
    guid: deb43618a2bf16646a7e09d9ed01b4b8
  - enabled: 1
    path: Assets/Scenes/Briefing1.unity
    guid: c87ce00a8c52ae149860cf6dae196a5a
  - enabled: 1
    path: Assets/Scenes/BioSheets1.unity
    guid: 12f057d687bd53d44817b8d277a826e9
  - enabled: 1
    path: Assets/Scenes/Patient.unity
    guid: 18f2a1b8c62b114458ddbd3e2a844775
  - enabled: 1
    path: Assets/Scenes/endday.unity
    guid: 48fd274622e666141a39c9231e21c52d
  - enabled: 1
    path: Assets/Scenes/LettersCutScene1.unity
    guid: ffb7ad0b06bc0ab41988df9f22b95a6b
  - enabled: 1
    path: Assets/Scenes/Game Over.unity
    guid: 6a297bc1cf3274748ae570f14fffc8f9
  - enabled: 0
    path: Assets/Scenes/Health Bar.unity
    guid: a08109d700a1deb42a24521055cfddfd
  m_configObjects: {}
